{
    "/js/know.js": "/js/know.js?id=f7b04b53aac76dde9423a445cecc67a7",
    "/js/argon-dashboard.js": "/js/argon-dashboard.js?id=761decca2dce13e0167ffe6244c17ece",
    "/css/argon-dashboard.css": "/css/argon-dashboard.css?id=8386584cd62509f7ef72e21537ae2b9b",
    "/css/know.css": "/css/know.css?id=682db82b20903449c12276036ac28bbb",
    "/images/header-bg.webp": "/images/header-bg.webp?id=2bd00b4303a7fc37e2deec65bb75ff2d"
}
